Modeling and prediction for movies
…
studio - Not good.

movies %>%
  group_by(studio) %>%
  summarise(n = n())

## Warning: Factor `studio` contains implicit NA, consider using
## `forcats::fct_explicit_na`

## # A tibble: 212 x 2
##    studio                                n
##    <fct>                             <int>
##  1 20th Century Fox                     18
##  2 20th Century Fox Film Corporat        2
##  3 20th Century Fox Film Corporation     5
##  4 7-57 Releasing                        1
##  5 7th art                               1
##  6 905 Corporation                       1
##  7 A24                                   1
##  8 A24 Films                             2
##  9 All Girl Productions                  1
## 10 Alliance Atlantis Communications      1
## # ... with 202 more rows
…
movies <- movies %>%
  group_by(studio_mod) %>%
  mutate(n = n()) %>% 
  mutate(studio_mod2 = if_else(n < 5, 'Others', studio_mod))

movies %>%
  group_by(studio_mod2) %>%
  summarise(n = n())

## # A tibble: 23 x 2
##    studio_mod2                  n
##    <chr>                    <int>
##  1 20th Century Fox            51
##  2 Buena Vista                 18
##  3 Columbia Pictures           11
##  4 First Run Features           7
##  5 HBO                          9
##  6 IFC Films                   18
##  7 Lions Gate Films            20
##  8 Magnolia Pictures           11
##  9 MCA Universal Home Video    13
## 10 MGM                         27
## # ... with 13 more rows
…
